…
# get the results
res <- get_query_results(sqe, profile = "personal")

res
## # A tibble: 100 x 16
##    timestamp   elbname requestip  requestport backendip  backendport requestprocessi… backendprocessi… clientresponset…
##    <chr>       <chr>   <chr>            <int> <chr>            <int>            <dbl>            <dbl>            <dbl>
##  1 2014-09-29… lb-demo 240.193.2…       13210 246.62.21…        8888        0.0000730           0.0241        0.0000470
##  2 2014-09-29… lb-demo 240.154.1…       40176 254.192.4…        8888        0.0000920           0.381         0.0000960
##  3 2014-09-29… lb-demo 245.155.2…       40176 255.209.3…        8888        0.000120            0.0166        0.0000830
##  4 2014-09-29… lb-demo 255.100.9…       53779 254.103.4…        8888        0.000104            0.0397        0.0000580
##  5 2014-09-29… lb-demo 246.62.21…       11810 254.103.4…        8888        0.0000860           0.0472        0.0000560
##  6 2014-09-29… lb-demo 254.103.4…       53376 242.220.9…        8888        0.0000600           0.0457        0.0000440
##  7 2014-09-29… lb-demo 240.147.1…       34693 250.234.1…         443        0.000101            0.0203        0.0000670
##  8 2014-09-29… lb-demo 251.69.22…       11810 251.69.22…        8888        0.0000720           0.0216        0.0000550
##  9 2014-09-29… lb-demo 242.190.1…       40176 245.155.2…          80        0.000106            0.0269        0.000201 
## 10 2014-09-29… lb-demo 248.228.9…       34693 248.178.1…        8888        0.000115            0.0154        0.0000890
## # ... with 90 more rows, and 7 more variables: elbresponsecode <chr>, backendresponsecode <chr>, receivedbytes <S3:
## #   integer64>, sentbytes <S3: integer64>, requestverb <chr>, url <chr>, protocol <chr>
```
